{
  "$schema": "http://json-schema.org/draft-04/schema#",
  "type": "object",
  "required": ["point", "k"],
  "additionalProperties": false,
  "properties": {
    "k": {
      "type": "integer",
      "minimum": 1,
      "maximum": 100,
      "description": "Amount of nearest points to get"
    },
    "unique_data": {
      "type": "boolean",
      "description": "Search closest points with unique data only"
    },
    "point": {
      "type": "object",
      "required": ["x", "y"],
      "properties": {
        "x": {
          "type": "number",
          "minimum": 0,
          "maximum": 1,
          "description": "Search point x coordinate"
        },
        "y": {
          "type": "number",
          "minimum": 0,
          "maximum": 1,
          "description": "Search point y coordinate"
        }
      }
    }
  }
}